{
  "images" : [
    {
      "idiom" : "universal",
      "scale" : "1x",
      "filename" : "account_setting1_top_headding_backgroud.png"
    },
    {
      "idiom" : "universal",
      "scale" : "2x"
    },
    {
      "idiom" : "universal",
      "scale" : "3x"
    }
  ],
  "info" : {
    "version" : 1,
    "author" : "xcode"
  }
}